…
city_or
```

    ## # A tibble: 47 × 5
    ## # Groups:   city_state [47]
    ##    city_state      estimate   p.value conf.low conf.high
    ##    <fct>              <dbl>     <dbl>    <dbl>     <dbl>
    ##  1 Albuquerque, NM    1.77  1.39 e- 1    0.825     3.76 
    ##  2 Atlanta, GA        1.00  1.000e+ 0    0.680     1.46 
    ##  3 Baltimore, MD      0.426 6.26 e-10    0.324     0.558
    ##  4 Baton Rouge, LA    0.381 1.65 e- 3    0.204     0.684
    ##  5 Birmingham, AL     0.870 5.11 e- 1    0.571     1.31 
    ##  6 Boston, MA         0.674 2.26 e- 1    0.353     1.28 
    ##  7 Buffalo, NY        0.521 2.90 e- 2    0.288     0.936
    ##  8 Charlotte, NC      0.884 6.00 e- 1    0.551     1.39 
    ##  9 Chicago, IL        0.410 1.86 e-18    0.336     0.501
    ## 10 Cincinnati, OH     0.400 6.49 e- 4    0.231     0.667
    ## # ℹ 37 more rows
…
